g_to_b.sim/sim_1/behav/xsim/simulate.log
Time resolution is 1 ps
--------------------------------------------------
 Gray(dec) |  Gray Code  |   Binary   | Binary(dec)
--------------------------------------------------
      0    |  00000000  |  00000000  |      0
      1    |  00000001  |  00000001  |      1
      3    |  00000011  |  00000010  |      2
      2    |  00000010  |  00000011  |      3
      6    |  00000110  |  00000100  |      4
      7    |  00000111  |  00000101  |      5
      5    |  00000101  |  00000110  |      6
      4    |  00000100  |  00000111  |      7
     12    |  00001100  |  00001000  |      8
     13    |  00001101  |  00001001  |      9
     30    |  00011110  |  00010100  |     20
     43    |  00101011  |  00110010  |     50
     86    |  01010110  |  01100100  |    100
    172    |  10101100  |  11001000  |    200
    128    |  10000000  |  11111111  |    255
--------------------------------------------------
$finish called at time : 150 ns : File "E:/PRG Files/g_to_b/g_to_b.srcs/sim_1/new/gray_to_bin_tb.v" Line 40
